{
  "extends": [
    "gitlab>AKorezin/renovate-config:containers-renovate",
    "local>akontainers/glpi/plugins//9.4/renovate",
    "local>akontainers/glpi/plugins//9.5/renovate"
  ],
  "packageRules": [
    {
      "matchPackagePatterns": [
        "ericferon/glpi-archimap",
        "ericferon/glpi-archisw",
        "ericferon/glpi-archifun"
      ],
      "extractVersion": "^v(?<version>.*)$"
    },
    {
      "matchPackagePatterns": ["fusioninventory/fusioninventory-for-glpi"],
      "extractVersion": "^glpi(?<version>.*)$",
      "versioning": "regex:(?<major>\\d+)\\.(?<minor>\\d+)(\\.\\d+)?\\+(?<patch>\\d+)\\.(?<build>\\d+)"
    }
  ]
}
